   ______               __  ___                                                        ___
  / __/ /____  _______ /  |/  /__ ____  ___ ____ ____ ____    _/|    _  _____ ____    <  /
 _\ \/ __/ _ \/ __/ -_) /|_/ / _ `/ _ \/ _ `/ _ `/ -_) __/   > _<   | |/ / -_) __/    / /
/___/\__/\___/_/  \__/_/  /_/\_,_/_//_/\_,_/\_, /\__/_/      |/     |___/\__/_/ (_)  /_/
                                           /___/